…
parent_of_local_math_constituent = parent_of(local_math_constituent)
```

Together, the collection of predicates, the logical operators, and the ability to assign names form an expressive language for describing custom constituencies for a variety of purposes. Best of all, the Disco Engine gives us the ability to pull the IDs of a defined constituency from the database!


```r
display(parent_of_local_math_constituent)
```

```
## # A tibble: 622 x 1
##    entity_id
##        <dbl>
##  1      1168
##  2      6322
##  3      6326
##  4      7644
##  5     11512
##  6     22093
##  7     24151
##  8     24247
##  9     26492
## 10     26968
## # ... with 612 more rows
```
…
