…
```r
# make sure we can send the defintion to the data warehouse
display(high_cap)
```

```
## Warning: `tbl_df()` was deprecated in dplyr 1.0.0.
## Please use `tibble::as_tibble()` instead.
## This warning is displayed once every 8 hours.
## Call `lifecycle::last_lifecycle_warnings()` to see where this warning was generated.
```

```
## # A tibble: 347 x 1
##    entity_id
##        <dbl>
##  1      1969
##  2      3105
##  3      3422
##  4      7011
##  5      7644
##  6     12178
##  7     12453
##  8     18139
##  9     20125
## 10     20227
## # ... with 337 more rows
```
…
