…
# make sure we can create a disco definition
high_cap = has_capacity(1)
# make sure that things print properly
high_cap

## LISTBUILDER DEFINITION (type: entity_id)
## .   source: d_entity_mv.entity_id (entity_id)
## .   logic: capacity_rating_code IN (1)

# make sure we can send the defintion to the data warehouse
display(high_cap)

## # A tibble: 265 x 1
##    entity_id
##        <dbl>
##  1      1969
##  2      3105
##  3      3422
##  4      7011
##  5      7644
##  6     12178
##  7     12453
##  8     13305
##  9     17464
## 10     18139
## # ... with 255 more rows
…
