…
Multiple widgets can be combined using the operators %and%, %or%, or %but_not%.

Be aware of the add-on packages for outputting additional data and improving your disco engine experience.

Use the documentation. For instance, type ?has_affiliation to understand how to use the has_affiliation widget.

1.2 Output

Use display for output. Recall that you can use the equals sign = to assign names to your disco engine definitions, to make it easier to refer to them when displaying or doing other operations:

basketball_player = played_sport(basketball_men, basketball_women)
display(basketball_player)

## # A tibble: 475 x 1
##    entity_id
##        <dbl>
##  1       370
##  2      1429
##  3      1495
##  4      3615
##  5      4425
##  6      5946
##  7      6412
##  8      6882
##  9      7539
## 10      8283
## # ... with 465 more rows
…
