Documentation for discoveryengine
…
has_affiliation, has_interest, and all of the employment-based widgets have an include_former option that defaults to TRUE

in_unit_portfolio has an option to include_inactive that defaults to FALSE (by default, only the active proposal assignments are considered)

The best way to find out options, defaults and other information about widgets is to use the built-in documentation.

B.3 Output

Use display for output. Recall that you can use the equals sign = to assign names to your disco engine definitions, to make it easier to refer to them when displaying or doing other operations:

basketball_player = played_sport(basketball_men, basketball_women)
display(basketball_player)

## # A tibble: 445 × 1
##    entity_id
##        <dbl>
## 1        370
## 2       1429
## 3       1495
## 4       3615
## 5       4425
## 6       5946
## 7       6412
## 8       6882
## 9       7539
## 10      7659
## # ... with 435 more rows
…
