20 Utilizing CA campaign finance data | Documentation for the discoveryengine
…
Once we know the correct candidate codes, we can pull contributors:

donors = ca_gave_to_candidate(CA657102211, CA1223588942, CA3663467903)
display(donors)

## # A tibble: 366 x 1
##    entity_id
##        <dbl>
##  1       331
##  2      1303
##  3      8666
##  4     11015
##  5     12306
##  6     12453
##  7     14259
##  8     15683
##  9     16251
## 10     16374
## # … with 356 more rows
…
