19 Utilizing FEC disclosure data | Documentation for the discoveryengine
…
19.2 Example: Engineering Prospects

A fundraiser might like to know if any of her prospects have recently made sizable political contributions:

# as with other widgets, leaving the committee code blank means i'm looking
# for giving to any committee
political_engineering_prospect = 
    in_unit_portfolio(engineering) %and%
    fec_gave_to_committee(at_least = 5000, from = 20170101, to = 20171031)

display(political_engineering_prospect)

## # A tibble: 27 x 1
##    entity_id
##        <dbl>
##  1       616
##  2      5881
##  3     15333
##  4     16641
##  5     17677
##  6     21091
##  7     30551
##  8    130078
##  9    229827
## 10    283796
## # … with 17 more rows
…
