Documentation for discoveryengine
…
So, all I really need to do is define last_year and this_year. I’m writing this example in September, 2016, so I’ll define “last year” as FY2015-16, or in other words, July 1, 2015 - June 30, 2016:

last_year = gave_to_area(social_welfare, from = 20150701, to = 20160630)

And now for this year. Since the to argument is optional, I can just do:

this_year = gave_to_area(social_welfare, from = 20160701)

Now I can create my LYBUNT definition, as I strategized above:

LYBUNT = last_year %but_not% this_year
display(LYBUNT)

## # A tibble: 433 × 1
##    entity_id
##        <dbl>
## 1        448
## 2        500
## 3        548
## 4       3408
## 5       8181
## 6       9357
## 7       9359
## 8       9598
## 9       9684
## 10     10025
## # ... with 423 more rows

Finally, recall that every widget has a default set up if you don’t enter any codes. Looking at ?gave_to_area I can see that if I don’t use an area of giving codes, I just get any giving anywhere. I can use this knowledge to get campus-wide LYBUNTs:

last_year = gave_to_area(from = 20150701, to = 20160630)
this_year = gave_to_area(from = 20160701)
LYBUNT = last_year %but_not% this_year
display(LYBUNT)

## # A tibble: 63,319 × 1
##    entity_id
##        <dbl>
## 1          3
## 2          4
## 3          7
## 4         13
## 5         16
## 6         49
## 7         59
## 8         72
## 9         94
## 10       114
## # ... with 63,309 more rows
