Documentation for discoveryengine
…
I already happen to know that the Goldman School is an area of giving, so:

is_goldman_donor = gave_to_area(public_policy)

The request was for people who meet any of the given criteria, so I’ll use %or% to combine them:

prospect_list = is_business_grad %or% 
    is_poli_econ_grad %or%
    is_haas_ctr_donor %or%
    is_cega_donor %or%
    is_goldman_donor

display(prospect_list)

## # A tibble: 83,461 x 1
##    entity_id
##        <dbl>
## 1          2
## 2          5
## 3         13
## 4         16
## 5         28
## 6         51
## 7         78
## 8         81
## 9         98
## 10       109
## # ... with 83,451 more rows
