Documentation for discoveryengine
…
Here I’ll assume that 25 miles is about as far as we can expect one of these band parents to travel in order to attend the event. So my definition should include only those people who live within 25 miles of the Claremont Resort:

event_prospect = band_parent %and% 
    lives_near("Claremont Resort", miles = 25)

## Basing results on: Claremont Resort And Spa, Oakland, CA, USA (37.86, -122.24)
## (confidence that this is the right location: 0.903)

13.4 How many?

Now I just use display and see the number of parents:

display(event_prospect)

## # A tibble: 87 × 1
##    entity_id
##        <dbl>
## 1      14999
## 2      15672
## 3      15687
## 4      46204
## 5      50302
## 6     250310
## 7     271059
## 8     276471
## 9     296428
## 10    317956
## # ... with 77 more rows

Notice the first line, before the IDs start, tells us exactly how many individuals are on the list: 87.

13.5 Householding

But hold up! Looking up some of these IDs, I’m noticing that both members of married couples are on the list. How many households are there here? I check the help for the display function by running ?display. And I notice that there is an option called household, and by default it is set to FALSE. So:

display(event_prospect, household = TRUE)

## # A tibble: 48 × 1
##    entity_id
##        <dbl>
## 1      14999
## 2     317956
## 3     347337
## 4     874556
## 5     889893
## 6     907499
## 7     988958
## 8     780532
## 9     910163
## 10    910379
## # ... with 38 more rows
