Documentation for discoveryengine
…
Many alumni in our database do not have capacity ratings, but come from wealthy families. This would be nice to be aware of if they were ever being solicited. But how could we identify these “children of wealth” using the discovery engine? It’s pretty easy to find wealthy individuals:

# as always, i make sure the disco engine is loaded
library(discoveryengine)

# i'll define wealthy as a capacity of $1 Million+
wealthy = has_capacity(1:7)

But now I’m stuck. I want to find children of anyone on that list. But so far all of the widgets we’ve seen work with specific codes, not other widgets. Technically, all the widgets we’ve seen are first-order widgets. But we do have some widgets that, instead of working on one or more specific codes, works on an existing, already filled out widget. child_of is one such second-order widget:

child_of_wealth = child_of(wealthy)
display(child_of_wealth)

## # A tibble: 1,024 x 1
##    entity_id
##        <dbl>
## 1     501819
## 2     633358
## 3    3009776
## 4     684446
## 5      30621
## 6     731797
## 7     325782
## 8     734035
## 9      31566
## 10     26435
## # ... with 1,014 more rows

Though the syntax looks just like what we’ve been doing all along, note that wealthy in the above is not a code or synonym, but instead is the name that I gave to the definition has_capacity(1:7). This makes child_of very different from other widgets we’ve seen so far. As we’ll see in the next seciton, the ability to use second-order widgets allows us to do some very powerful things.

The result of using a second-order widget, though, is just like using any other widget. You can continue to combine it with other widgets:

display(child_of_wealth %and% lives_in_msa(san_francisco))

## # A tibble: 448 x 1
##    entity_id
##        <dbl>
## 1     501819
## 2     731797
## 3     325782
## 4     415779
## 5      30775
## 6      30776
## 7     459195
## 8      28210
## 9      21477
## 10    433145
## # ... with 438 more rows

# or even
display(
    child_of(child_of_wealth)
)

## # A tibble: 118 x 1
##    entity_id
##        <dbl>
## 1     684446
## 2    1002656
## 3     499074
## 4    3211635
## 5     945146
## 6     509691
## 7    3162983
## 8     734034
## 9     916909
## 10    742372
## # ... with 108 more rows
