Documentation for the discoveryengine
…
## [1]  4 17

Ok, so it looks like we know how to implement to_sql:

to_sql <- function(definition) {
    do.call("generate_query", definition)
}

That’s basically it! Let’s test what we have:

is_prytanean = has_affiliation("OC6")
display(is_prytanean)

## # A tibble: 3,499 x 1
##    entity_id
##        <dbl>
##  1      3550
##  2    774055
##  3    777670
##  4    668457
##  5    910042
##  6     15614
##  7    417662
##  8    268592
##  9    261435
## 10    174865
## # ... with 3,489 more rows

## and we can use multiple affiliations:
is_constituent = has_affiliation(c("M2", "MA4"))
display(is_constituent)

## # A tibble: 2,681 x 1
##    entity_id
##        <dbl>
##  1    231417
##  2   3147309
##  3   3170738
##  4   3189504
##  5   3189303
##  6   3189304
##  7    402346
##  8    679051
##  9    672896
## 10    704020
## # ... with 2,671 more rows
…
    list(ID_FIELD = "entity_id",
         ID_TYPE = "entity_id",
         TABLE_NAME = "cdw.d_bio_affiliation_mv",
         FIELD_NAME = "affil_code",
         LIST_OF_VALUES = paste0("'", affiliations, "'",
                                collapse = ", "))    
}

Here eval(substitute(alist(...))) and as.character(affiliations) take the symbols entered by the user (I’m noting they are symbols and not characters) and convert them to a character vector. So far, so good:

display(
    has_affiliation(M2, MA4)
)

## # A tibble: 2,681 x 1
##    entity_id
##        <dbl>
##  1    231417
##  2   3147309
##  3   3170738
##  4   3189504
##  5   3189303
##  6   3189304
##  7    402346
##  8    679051
##  9    672896
## 10    704020
## # ... with 2,671 more rows
…
