Documentation for discoveryengine
…
# make sure that things print properly
high_cap

## LISTBUILDER DEFINITION (type: entity_id)
## .   source: d_entity_mv.entity_id (entity_id)
## .   logic: capacity_rating_code IN 1

# make sure we can send the defintion to the data warehouse
display(high_cap)

## Loading required package: DBI

## # A tibble: 118 x 1
##    entity_id
##        <dbl>
## 1      21209
## 2      28838
## 3      29606
## 4     418093
## 5     689600
## 6     753358
## 7     858140
## 8     932063
## 9     952492
## 10   3002874
## # ... with 108 more rows
…
