Documentation for the discoveryengine
…
In order to send the definition to the data warehouse, retrieve the results, and show them to us, we use the display function:

display(event_prospect)

## # A tibble: 777 x 1
##    entity_id
##        <dbl>
##  1       529
##  2       616
##  3      1969
##  4      3422
##  5      5280
##  6      5573
##  7      5833
##  8      6622
##  9      6886
## 10      7644
## # ... with 767 more rows
…
