Documentation for discoveryengine
…
And in fact, if we run display, we’ll see a list of allocation codes instead of the entity IDs that we’ve seen in previous examples:

display(diversity_funds)

## # A tibble: 208 x 1
##    allocation_code
##              <chr>
## 1        FB0807000
## 2        FM8294000
## 3        FN1251000
## 4        FN1252000
## 5        FN1271000
## 6        FN1286000
## 7        FN1551000
## 8        FN3235000
## 9        FN3251000
## 10       FN3252000
## # ... with 198 more rows

10.4 From funds to entities

If all you needed to do was get a list of allocation codes for your own research, then congrats, you’re done! But what if you want to take the next step, and find donors to those funds? You use one of the tools to find widgets to discover the gave_to_fund widget (read more at ?gave_to_fund). Though it looks on the surface pretty similar to gave_to_area and gave_to_department, it is in fact one of those second-order widgets!

# gave_to_fund has the same interface/options 
# as gave_to_area and gave_to_department. 
diversity_donors = gave_to_fund(diversity_funds, at_least = 10000,
                                from = 20150101, to = 20151231)
display(diversity_donors)

## # A tibble: 27 x 1
##    entity_id
##        <dbl>
## 1        867
## 2      10469
## 3      12100
## 4      16607
## 5      21393
## 6      22653
## 7      23207
## 8      24473
## 9      27771
## 10     28097
## # ... with 17 more rows
…
