Documentation for the discoveryengine
…
These definitions can quickly become very complex. To manage that complexity, the Disco Engine provides the ability to assign names to definitions, that can then be used to construct more complex definitions:

is_math_constituent = majored_in(mathematics) %or% 
    gave_to_department(mathematics)

local_math_constituent = is_math_constituent %and%
    lives_in_msa(san_francisco)

parent_of_local_math_constituent = parent_of(local_math_constituent)

Together, the collection of predicates, the logical operators, and the ability to assign names form an expressive language for describing custom constituencies for a variety of purposes. Best of all, the Disco Engine gives us the ability to pull the IDs of a defined constituency from the database!

display(parent_of_local_math_constituent)

## # A tibble: 559 x 1
##    entity_id
##        <dbl>
##  1      1168
##  2      4522
##  3      6322
##  4      6326
##  5      7644
##  6     11512
##  7     21838
##  8     23989
##  9     24151
## 10     24247
## # ... with 549 more rows
…
