Documentation for discoveryengine
…
gave_to_area(HSB, COC) is the same as above

gave_to_area(business, COC) once again, the same thing

6.4 Use the default cases

So by now you can probably figure out that partcipated_in(uc_jazz_ensembles) gets you alumni who participated in the UC Jazz Ensembles. But what if you’re actually looking for people who particpated in any student activity at all? Would you have to type out all (hundreds!) of them?

Luckily, no! In fact, all you have to do is type participated_in():

did_anything = participated_in()
display(did_anything)

## # A tibble: 211,397 x 1
##    entity_id
##        <dbl>
## 1     479293
## 2     978671
## 3     698424
## 4     882164
## 5     378663
## 6     642319
## 7     645485
## 8     583924
## 9    3063211
## 10    790879
## # ... with 211,387 more rows
…
6.7 Combination example

You’re working with a major gift officer in the School of Business who is surprised to find out that alumni have been giving $15,000+ gifts in response to annual appeals, with no follow-up from major gift officers. She calls you up and says:

I need to a report on everyone who has given $15,000 or more this year who isn’t yet in a portfolio, and I need it right away!

You could probably have a savedlist ready before she’s even hung up the phone:

important_prospects = 
    gave_to_area(business, at_least = 15000, from = 20160101) %but_not% 
    in_unit_portfolio(business)

display(important_prospects)

## # A tibble: 74 x 1
##    entity_id
##        <dbl>
## 1     878167
## 2     741407
## 3     433145
## 4      23984
## 5    3106890
## 6    1008005
## 7     612156
## 8    3152758
## 9    3083791
## 10     21159
## # ... with 64 more rows

6.8 Combination example 2

So you create your savedlist, run a Prospect Pool Spreadsheet on it, review the results, and send the data and your analysis over to the major gift officer. She notices that several of the people on the list had been in portfolios earlier, so asks if you can find just those who have never been in a portfolio.

You start out by checking if the portfolio widget has any options regarding inactive proposal assignments, by typing ?in_unit_portfolio. You see that yes, indeed, there is an option called include_inactive that defaults to FALSE. If you instead set it to TRUE by typing in_unit_portfolio(business, include_inactive = TRUE), you’d be capturing anyone who has ever been in a Business portfolio, and you can again use %but_not% to subtract those people from the donor list:

important_prospects = 
    gave_to_area(business, at_least = 15000, from = 20160101) %but_not%
    in_unit_portfolio(business, include_inactive = TRUE)

display(important_prospects)

## # A tibble: 61 x 1
##    entity_id
##        <dbl>
## 1     878167
## 2     433145
## 3      23984
## 4    3106890
## 5    1008005
## 6     612156
## 7    3152758
## 8    3083791
## 9     393692
## 10   3145542
## # ... with 51 more rows
